[gd_resource type="Environment" load_steps=2 format=2]

[sub_resource type="ProceduralSky" id=1]

[resource]
background_mode = 2
background_sky = SubResource( 1 )
fog_color = Color( 1, 1, 1, 1 )
ss_reflections_roughness = false
ssao_enabled = true
ssao_radius2 = 1.4
ssao_bias = 0.001
ssao_quality = 2
dof_blur_far_distance = 0.08
dof_blur_far_transition = 3.77
