[gd_resource type="SpatialMaterial" format=2]

[resource]
flags_transparent = true
albedo_color = Color( 1, 1, 1, 0.419608 )
emission_enabled = true
emission = Color( 1, 0, 0, 1 )
emission_energy = 16.0
emission_operator = 0
emission_on_uv2 = false
proximity_fade_enable = true
proximity_fade_distance = 20.0
